{
  "entrypoint": "index.html",
  "shell": "src/my-app.html",
  "fragments": [
    "src/home-movements.html",
    "src/register-login.html",
    "src/secret-movements.html",
    "src/not-found.html"
  ],
  "sourceGlobs": [
   "src/**/*",
   "images/**/*",
   "bower.json"
  ],
  "includeDependencies": [
    "manifest.json",
    "bower_components/webcomponentsjs/webcomponents-lite.min.js"
  ]
}
